This is BibTeX, Version 0.99d (TeX Live 2023)
Capacity: max_strings=200000, hash_size=200000, hash_prime=170003
The top-level auxiliary file: thesis.aux
The style file: plaindin.bst
Reallocated singl_function (elt_size=4) to 100 items from 50.
Reallocated singl_function (elt_size=4) to 100 items from 50.
Reallocated wiz_functions (elt_size=4) to 6000 items from 3000.
Reallocated singl_function (elt_size=4) to 100 items from 50.
Reallocated singl_function (elt_size=4) to 100 items from 50.
Database file #1: source.bib
Warning--entry type for "sceneunderstanding" isn't style-file defined
--line 367 of file source.bib
Warning--empty title in pyramidpooling
Warning--empty booktitle in pyramidpooling
Warning--empty booktitle in upsnet
You've used 28 entries,
            4335 wiz_defined-function locations,
            982 strings with 11329 characters,
and the built_in function-call counts, 22877 in all, are:
= -- 2345
> -- 714
< -- 1052
+ -- 1193
- -- 259
* -- 1554
:= -- 4140
add.period$ -- 43
call.type$ -- 28
change.case$ -- 183
chr.to.int$ -- 0
cite$ -- 31
duplicate$ -- 462
empty$ -- 1246
format.name$ -- 505
if$ -- 4162
int.to.chr$ -- 0
int.to.str$ -- 28
missing$ -- 107
newline$ -- 170
num.names$ -- 55
pop$ -- 253
preamble$ -- 1
purify$ -- 183
quote$ -- 0
skip$ -- 1279
stack$ -- 0
substring$ -- 1844
swap$ -- 177
text.length$ -- 140
text.prefix$ -- 0
top$ -- 0
type$ -- 114
warning$ -- 3
while$ -- 196
width$ -- 30
write$ -- 380
(There were 4 warnings)
