\babel@toc {english}{}\relax 
\addvspace {10\p@ }
\addvspace {10\p@ }
\contentsline {table}{\numberline {2.1}{\ignorespaces List of classes and their respective ID for original dataset.}}{18}{table.caption.28}%
\contentsline {table}{\numberline {2.2}{\ignorespaces training data instances for the original dataset of 576 pictures}}{19}{table.caption.29}%
\contentsline {table}{\numberline {2.3}{\ignorespaces validation data instances for the original dataset of 178 pictures}}{19}{table.caption.30}%
\contentsline {table}{\numberline {2.4}{\ignorespaces test data instances for the normal dataset of 20 pictures}}{19}{table.caption.31}%
\contentsline {table}{\numberline {2.5}{\ignorespaces Roboflow augmentations done}}{20}{table.caption.34}%
\contentsline {table}{\numberline {2.6}{\ignorespaces Overview and labels for edited class dataset}}{22}{table.caption.35}%
\contentsline {table}{\numberline {2.7}{\ignorespaces validation data instances for the edited class dataset of 178 pictures}}{22}{table.caption.36}%
\contentsline {table}{\numberline {2.8}{\ignorespaces training data instances for the edited class dataset of 576 pictures}}{22}{table.caption.37}%
\contentsline {table}{\numberline {2.9}{\ignorespaces test data instances for the edited class dataset of 20 pictures}}{23}{table.caption.38}%
\contentsline {table}{\numberline {2.10}{\ignorespaces Class ID and class description for the new dataset, which will be used in testing.}}{23}{table.caption.39}%
\contentsline {table}{\numberline {2.11}{\ignorespaces Training data instances for the new dataset of 327 pictures}}{23}{table.caption.40}%
\contentsline {table}{\numberline {2.12}{\ignorespaces Validation data instances for the new dataset of 55 pictures}}{23}{table.caption.41}%
\contentsline {table}{\numberline {2.13}{\ignorespaces Test data instances for the new dataset of 25 pictures.}}{23}{table.caption.42}%
\contentsline {table}{\numberline {2.14}{\ignorespaces Dataset overview for the combined dataset.}}{24}{table.caption.43}%
\contentsline {table}{\numberline {2.15}{\ignorespaces training data instances for the new dataset of 1002 pictures}}{24}{table.caption.44}%
\contentsline {table}{\numberline {2.16}{\ignorespaces validation data instances for the combined dataset of 179 pictures}}{24}{table.caption.45}%
\addvspace {10\p@ }
\contentsline {table}{\numberline {3.1}{\ignorespaces Hyperparameters for R50 Network}}{31}{table.caption.48}%
\contentsline {table}{\numberline {3.2}{\ignorespaces Values compared between datasets for R50.}}{32}{table.caption.50}%
\contentsline {table}{\numberline {3.3}{\ignorespaces Hyperparameters for X101}}{34}{table.caption.53}%
\contentsline {table}{\numberline {3.4}{\ignorespaces Values compared between datasets for X101}}{34}{table.caption.55}%
\contentsline {table}{\numberline {3.5}{\ignorespaces Hyperparameters for X101 with PointRend}}{36}{table.caption.57}%
\contentsline {table}{\numberline {3.6}{\ignorespaces Values compared between datasets for X101 with PointRend}}{37}{table.caption.59}%
\contentsline {table}{\numberline {3.7}{\ignorespaces bbox AP based threshold scores}}{42}{table.caption.65}%
\contentsline {table}{\numberline {3.8}{\ignorespaces bbox AP results for new dataset}}{43}{table.caption.66}%
\contentsline {table}{\numberline {3.9}{\ignorespaces segm AP based threshold scores}}{43}{table.caption.67}%
\contentsline {table}{\numberline {3.10}{\ignorespaces segm AP results for new dataset}}{43}{table.caption.68}%
\contentsline {table}{\numberline {3.11}{\ignorespaces bbox AP based threshold scores}}{47}{table.caption.73}%
\contentsline {table}{\numberline {3.12}{\ignorespaces bbox AP results for combined dataset}}{48}{table.caption.74}%
\contentsline {table}{\numberline {3.13}{\ignorespaces segm AP based threshold scores}}{48}{table.caption.75}%
\contentsline {table}{\numberline {3.14}{\ignorespaces segm AP results for combined dataset}}{48}{table.caption.76}%
\contentsline {table}{\numberline {3.15}{\ignorespaces bbox AP based threshold scores}}{52}{table.caption.81}%
\contentsline {table}{\numberline {3.16}{\ignorespaces bbox AP results for combined dataset}}{53}{table.caption.82}%
\contentsline {table}{\numberline {3.17}{\ignorespaces segm AP based threshold scores}}{53}{table.caption.83}%
\contentsline {table}{\numberline {3.18}{\ignorespaces segm AP results for combined dataset}}{53}{table.caption.84}%
\contentsline {table}{\numberline {3.19}{\ignorespaces bbox AP based threshold scores}}{57}{table.caption.89}%
\contentsline {table}{\numberline {3.20}{\ignorespaces bbox AP results for combined dataset}}{58}{table.caption.90}%
\contentsline {table}{\numberline {3.21}{\ignorespaces segm AP based threshold scores}}{58}{table.caption.91}%
\contentsline {table}{\numberline {3.22}{\ignorespaces segm AP results for combined dataset}}{58}{table.caption.92}%
