\relax 
\catcode 95\active
\providecommand\babel@aux[2]{}
\@nameuse{bbl@beforestart}
\providecommand\hyper@newdestlabel[2]{}
\providecommand\HyperFirstAtBeginDocument{\AtBeginDocument}
\HyperFirstAtBeginDocument{\ifx\hyper@anchor\@undefined
\global\let\oldnewlabel\newlabel
\gdef\newlabel#1#2{\newlabelxx{#1}#2}
\gdef\newlabelxx#1#2#3#4#5#6{\oldnewlabel{#1}{{#2}{#3}}}
\AtEndDocument{\ifx\hyper@anchor\@undefined
\let\newlabel\oldnewlabel
\fi}
\fi}
\global\let\hyper@last\relax 
\gdef\HyperFirstAtBeginDocument#1{#1}
\providecommand\HyField@AuxAddToFields[1]{}
\providecommand\HyField@AuxAddToCoFields[2]{}
\babel@aux{english}{}
\citation{resnet}
\citation{resnet}
\citation{resnext}
\citation{resnext}
\citation{pointrend}
\citation{pointrend}
\citation{ronneberger2015u}
\citation{chen2018encoderdecoder}
\citation{sceneunderstanding}
\citation{sceneunderstanding}
\citation{ICGDroneDataset}
\citation{cvtechniques}
\citation{yolov1}
\citation{fasterrcnn}
\citation{yolov1}
\citation{ssd}
\citation{vgg16}
\citation{resnet}
\citation{fasterrcnn}
\citation{he2018mask}
\@writefile{toc}{\contentsline {chapter}{\numberline {1}State of the Art}{3}{chapter.1}\protected@file@percent }
\@writefile{lof}{\addvspace {10\p@ }}
\@writefile{lot}{\addvspace {10\p@ }}
\@writefile{toc}{\contentsline {section}{\numberline {1.1}Computer Vision tasks}{3}{section.1.1}\protected@file@percent }
\@writefile{toc}{\contentsline {subsection}{\numberline {1.1.1}Object Detection}{3}{subsection.1.1.1}\protected@file@percent }
\citation{resnet}
\citation{resnet}
\citation{resnet}
\@writefile{toc}{\contentsline {subsection}{\numberline {1.1.2}Instance Segmentation}{4}{subsection.1.1.2}\protected@file@percent }
\@writefile{toc}{\contentsline {subsubsection}{ResNet}{4}{section*.6}\protected@file@percent }
\citation{resnet}
\citation{resnet}
\@writefile{lof}{\contentsline {figure}{\numberline {1.1}{\ignorespaces Residual block concept. \cite  {resnet}}}{5}{figure.caption.7}\protected@file@percent }
\@writefile{toc}{\contentsline {subsubsection}{ResNet-50}{5}{section*.8}\protected@file@percent }
\citation{resnext}
\citation{resnext}
\citation{resnext}
\@writefile{lof}{\contentsline {figure}{\numberline {1.2}{\ignorespaces Comparisons of layers in the ResNet network \cite  {resnet}}}{6}{figure.caption.9}\protected@file@percent }
\@writefile{toc}{\contentsline {subsubsection}{ResNext}{6}{section*.10}\protected@file@percent }
\@writefile{lof}{\contentsline {figure}{\numberline {1.3}{\ignorespaces ResNet vs ResNeXt comparison \cite  {resnext}}}{6}{figure.caption.11}\protected@file@percent }
\citation{resnext}
\citation{resnext}
\@writefile{lof}{\contentsline {figure}{\numberline {1.4}{\ignorespaces Variations of the ResNext layers. \cite  {resnext}}}{7}{figure.caption.12}\protected@file@percent }
\@writefile{toc}{\contentsline {subsubsection}{PointRend}{7}{section*.13}\protected@file@percent }
\citation{pointrend}
\citation{pointrend}
\citation{pointrend}
\citation{pointrend}
\@writefile{lof}{\contentsline {figure}{\numberline {1.5}{\ignorespaces Visual representation of R-CNN vs integration with PointRend \cite  {pointrend}}}{8}{figure.caption.14}\protected@file@percent }
\citation{fcn}
\citation{mobilenetv2}
\citation{fcn}
\citation{ronneberger2015u}
\@writefile{lof}{\contentsline {figure}{\numberline {1.6}{\ignorespaces PointRend description \cite  {pointrend}}}{9}{figure.caption.15}\protected@file@percent }
\@writefile{toc}{\contentsline {subsection}{\numberline {1.1.3}Semantic Segmentation}{9}{subsection.1.1.3}\protected@file@percent }
\@writefile{toc}{\contentsline {subsubsection}{FCN}{9}{section*.16}\protected@file@percent }
\citation{ronneberger2015u}
\citation{ronneberger2015u}
\@writefile{toc}{\contentsline {subsubsection}{U-Net}{10}{section*.17}\protected@file@percent }
\@writefile{lof}{\contentsline {figure}{\numberline {1.7}{\ignorespaces Architecture of UNet \cite  {ronneberger2015u}}}{10}{figure.caption.18}\protected@file@percent }
\citation{chen2017rethinking}
\citation{chen2018encoderdecoder}
\citation{chen2018encoderdecoder}
\@writefile{toc}{\contentsline {subsubsection}{DeepLabv3}{11}{section*.19}\protected@file@percent }
\citation{panoptic}
\citation{upsnet}
\citation{girshick2014rich}
\citation{Selective}
\@writefile{lof}{\contentsline {figure}{\numberline {1.8}{\ignorespaces Architecture of DeepLabv3+ \cite  {chen2018encoderdecoder}}}{12}{figure.caption.20}\protected@file@percent }
\@writefile{toc}{\contentsline {subsection}{\numberline {1.1.4}Panoptic Segmentation}{12}{subsection.1.1.4}\protected@file@percent }
\@writefile{toc}{\contentsline {section}{\numberline {1.2}Detectors}{12}{section.1.2}\protected@file@percent }
\@writefile{toc}{\contentsline {subsection}{\numberline {1.2.1}Two-stage Detectors}{12}{subsection.1.2.1}\protected@file@percent }
\@writefile{toc}{\contentsline {subsubsection}{R-CNN}{12}{section*.21}\protected@file@percent }
\citation{pyramidpooling}
\citation{fastrcnn}
\citation{pyramidpooling}
\citation{fasterrcnn}
\@writefile{toc}{\contentsline {subsubsection}{Fast R-CNN}{13}{section*.22}\protected@file@percent }
\@writefile{toc}{\contentsline {subsubsection}{Faster R-CNN}{13}{section*.23}\protected@file@percent }
\citation{he2018mask}
\citation{sceneunderstanding}
\citation{sceneunderstanding}
\citation{yolov1}
\citation{bochkovskiy2020yolov4}
\@writefile{toc}{\contentsline {subsubsection}{Mask R-CNN}{14}{section*.24}\protected@file@percent }
\@writefile{lof}{\contentsline {figure}{\numberline {1.9}{\ignorespaces Chronological timeline of object detection and image segmentation architectures. \cite  {sceneunderstanding}}}{14}{figure.caption.25}\protected@file@percent }
\@writefile{toc}{\contentsline {subsection}{\numberline {1.2.2}One-stage Detectors}{14}{subsection.1.2.2}\protected@file@percent }
\citation{ssd}
\citation{retinanet}
\citation{lin2017feature}
\citation{sceneunderstanding}
\citation{sceneunderstanding}
\citation{lin2017feature}
\@writefile{lof}{\contentsline {figure}{\numberline {1.10}{\ignorespaces Average precision results on COCO dataset across object detection models. \cite  {sceneunderstanding}}}{15}{figure.caption.26}\protected@file@percent }
\@writefile{toc}{\contentsline {subsubsection}{Feature Pyramid Network (FPN)}{15}{section*.27}\protected@file@percent }
\citation{he2018mask}
\@writefile{toc}{\contentsline {section}{\numberline {1.3}Loss Metrics}{16}{section.1.3}\protected@file@percent }
\citation{ICGDroneDataset}
\citation{ICGDroneDataset}
\citation{ICGDroneDataset}
\@writefile{toc}{\contentsline {chapter}{\numberline {2}Data and Methodology}{18}{chapter.2}\protected@file@percent }
\@writefile{lof}{\addvspace {10\p@ }}
\@writefile{lot}{\addvspace {10\p@ }}
\@writefile{toc}{\contentsline {section}{\numberline {2.1}Dataset}{18}{section.2.1}\protected@file@percent }
\@writefile{toc}{\contentsline {subsection}{\numberline {2.1.1}Original Dataset}{18}{subsection.2.1.1}\protected@file@percent }
\@writefile{lot}{\contentsline {table}{\numberline {2.1}{\ignorespaces List of classes and their respective ID for original dataset.}}{18}{table.caption.28}\protected@file@percent }
\@writefile{lot}{\contentsline {table}{\numberline {2.2}{\ignorespaces training data instances for the original dataset of 576 pictures}}{19}{table.caption.29}\protected@file@percent }
\@writefile{lot}{\contentsline {table}{\numberline {2.3}{\ignorespaces validation data instances for the original dataset of 178 pictures}}{19}{table.caption.30}\protected@file@percent }
\@writefile{lot}{\contentsline {table}{\numberline {2.4}{\ignorespaces test data instances for the normal dataset of 20 pictures}}{19}{table.caption.31}\protected@file@percent }
\@writefile{lof}{\contentsline {figure}{\numberline {2.1}{\ignorespaces Samples from the dataset. \cite  {ICGDroneDataset}}}{19}{figure.caption.32}\protected@file@percent }
\providecommand*\caption@xref[2]{\@setref\relax\@undefined{#1}}
\newlabel{fig:dataset}{{2.1}{19}{Samples from the dataset. \cite {ICGDroneDataset}}{figure.caption.32}{}}
\@writefile{lof}{\contentsline {subfigure}{\numberline{(a)}{\ignorespaces {Sample picture}}}{19}{subfigure.1.1}\protected@file@percent }
\@writefile{lof}{\contentsline {subfigure}{\numberline{(b)}{\ignorespaces {Sample ground truth}}}{19}{subfigure.1.2}\protected@file@percent }
\@writefile{lof}{\contentsline {figure}{\numberline {2.2}{\ignorespaces Roboflow annotations}}{20}{figure.caption.33}\protected@file@percent }
\@writefile{lot}{\contentsline {table}{\numberline {2.5}{\ignorespaces Roboflow augmentations done}}{20}{table.caption.34}\protected@file@percent }
\@writefile{toc}{\contentsline {subsection}{\numberline {2.1.2}Data Augmentation}{21}{subsection.2.1.2}\protected@file@percent }
\@writefile{toc}{\contentsline {subsection}{\numberline {2.1.3}Edited Class Dataset}{22}{subsection.2.1.3}\protected@file@percent }
\@writefile{lot}{\contentsline {table}{\numberline {2.6}{\ignorespaces Overview and labels for edited class dataset}}{22}{table.caption.35}\protected@file@percent }
\@writefile{lot}{\contentsline {table}{\numberline {2.7}{\ignorespaces validation data instances for the edited class dataset of 178 pictures}}{22}{table.caption.36}\protected@file@percent }
\@writefile{lot}{\contentsline {table}{\numberline {2.8}{\ignorespaces training data instances for the edited class dataset of 576 pictures}}{22}{table.caption.37}\protected@file@percent }
\@writefile{toc}{\contentsline {subsection}{\numberline {2.1.4}Self Annotated Dataset}{22}{subsection.2.1.4}\protected@file@percent }
\@writefile{lot}{\contentsline {table}{\numberline {2.9}{\ignorespaces test data instances for the edited class dataset of 20 pictures}}{23}{table.caption.38}\protected@file@percent }
\@writefile{lot}{\contentsline {table}{\numberline {2.10}{\ignorespaces Class ID and class description for the new dataset, which will be used in testing.}}{23}{table.caption.39}\protected@file@percent }
\@writefile{lot}{\contentsline {table}{\numberline {2.11}{\ignorespaces Training data instances for the new dataset of 327 pictures}}{23}{table.caption.40}\protected@file@percent }
\@writefile{lot}{\contentsline {table}{\numberline {2.12}{\ignorespaces Validation data instances for the new dataset of 55 pictures}}{23}{table.caption.41}\protected@file@percent }
\@writefile{lot}{\contentsline {table}{\numberline {2.13}{\ignorespaces Test data instances for the new dataset of 25 pictures.}}{23}{table.caption.42}\protected@file@percent }
\@writefile{toc}{\contentsline {subsection}{\numberline {2.1.5}Combined Dataset}{24}{subsection.2.1.5}\protected@file@percent }
\@writefile{lot}{\contentsline {table}{\numberline {2.14}{\ignorespaces Dataset overview for the combined dataset.}}{24}{table.caption.43}\protected@file@percent }
\@writefile{lot}{\contentsline {table}{\numberline {2.15}{\ignorespaces training data instances for the new dataset of 1002 pictures}}{24}{table.caption.44}\protected@file@percent }
\@writefile{lot}{\contentsline {table}{\numberline {2.16}{\ignorespaces validation data instances for the combined dataset of 179 pictures}}{24}{table.caption.45}\protected@file@percent }
\citation{pytorch}
\@writefile{toc}{\contentsline {section}{\numberline {2.2}Early Trials}{25}{section.2.2}\protected@file@percent }
\@writefile{toc}{\contentsline {subsection}{\numberline {2.2.1}Deeplab with Pytorch}{25}{subsection.2.2.1}\protected@file@percent }
\@writefile{lof}{\contentsline {figure}{\numberline {2.3}{\ignorespaces Plot of DeepLab Pytorch metrics}}{25}{figure.caption.46}\protected@file@percent }
\newlabel{fig:deeplabplot}{{2.3}{25}{Plot of DeepLab Pytorch metrics}{figure.caption.46}{}}
\@writefile{lof}{\contentsline {subfigure}{\numberline{(a)}{\ignorespaces {Training and validation loss}}}{25}{subfigure.3.1}\protected@file@percent }
\@writefile{lof}{\contentsline {subfigure}{\numberline{(b)}{\ignorespaces {Training and validation accuracy}}}{25}{subfigure.3.2}\protected@file@percent }
\@writefile{lof}{\contentsline {figure}{\numberline {2.4}{\ignorespaces Inference trial on the validation dataset.}}{26}{figure.caption.47}\protected@file@percent }
\newlabel{fig:deeplabinference}{{2.4}{26}{Inference trial on the validation dataset}{figure.caption.47}{}}
\@writefile{lof}{\contentsline {subfigure}{\numberline{(a)}{\ignorespaces {1}}}{26}{subfigure.4.1}\protected@file@percent }
\@writefile{lof}{\contentsline {subfigure}{\numberline{(b)}{\ignorespaces {2}}}{26}{subfigure.4.2}\protected@file@percent }
\@writefile{lof}{\contentsline {subfigure}{\numberline{(c)}{\ignorespaces {3}}}{26}{subfigure.4.3}\protected@file@percent }
\@writefile{toc}{\contentsline {subsection}{\numberline {2.2.2}Detectron2}{27}{subsection.2.2.2}\protected@file@percent }
\@writefile{toc}{\contentsline {subsection}{\numberline {2.2.3}Detectron2 Loss Metrics}{27}{subsection.2.2.3}\protected@file@percent }
\@writefile{toc}{\contentsline {section}{\numberline {2.3}Hyperparameter Optimization}{28}{section.2.3}\protected@file@percent }
\citation{akiba2019optuna}
\citation{pathologydetectron}
\citation{pathologydetectron}
\@writefile{toc}{\contentsline {chapter}{\numberline {3}Results and Discussion}{31}{chapter.3}\protected@file@percent }
\@writefile{lof}{\addvspace {10\p@ }}
\@writefile{lot}{\addvspace {10\p@ }}
\@writefile{toc}{\contentsline {section}{\numberline {3.1}R50, FPN, 3x}{31}{section.3.1}\protected@file@percent }
\@writefile{lot}{\contentsline {table}{\numberline {3.1}{\ignorespaces Hyperparameters for R50 Network}}{31}{table.caption.48}\protected@file@percent }
\citation{cvtechniques}
\citation{cvtechniques}
\@writefile{lof}{\contentsline {figure}{\numberline {3.1}{\ignorespaces R50 parameters from the optimization run.}}{32}{figure.caption.49}\protected@file@percent }
\@writefile{lot}{\contentsline {table}{\numberline {3.2}{\ignorespaces Values compared between datasets for R50.}}{32}{table.caption.50}\protected@file@percent }
\@writefile{lof}{\contentsline {figure}{\numberline {3.2}{\ignorespaces Comparison of validation loss between the combinations tried for R50.}}{32}{figure.caption.51}\protected@file@percent }
\@writefile{toc}{\contentsline {section}{\numberline {3.2}X101, FPN, 3x}{32}{section.3.2}\protected@file@percent }
\@writefile{lof}{\contentsline {figure}{\numberline {3.3}{\ignorespaces Architecture of X101(ResNext) \cite  {cvtechniques}}}{33}{figure.caption.52}\protected@file@percent }
\@writefile{lot}{\contentsline {table}{\numberline {3.3}{\ignorespaces Hyperparameters for X101}}{34}{table.caption.53}\protected@file@percent }
\@writefile{lof}{\contentsline {figure}{\numberline {3.4}{\ignorespaces X101 parameters from the optimization run.}}{34}{figure.caption.54}\protected@file@percent }
\@writefile{lot}{\contentsline {table}{\numberline {3.4}{\ignorespaces Values compared between datasets for X101}}{34}{table.caption.55}\protected@file@percent }
\@writefile{lof}{\contentsline {figure}{\numberline {3.5}{\ignorespaces Comparison of validation loss between the combinations tried for X101.}}{34}{figure.caption.56}\protected@file@percent }
\@writefile{toc}{\contentsline {section}{\numberline {3.3}X101 with PointRend}{36}{section.3.3}\protected@file@percent }
\@writefile{lot}{\contentsline {table}{\numberline {3.5}{\ignorespaces Hyperparameters for X101 with PointRend}}{36}{table.caption.57}\protected@file@percent }
\@writefile{lof}{\contentsline {figure}{\numberline {3.6}{\ignorespaces X101 wiht PointRend parameters from the optimization run.}}{36}{figure.caption.58}\protected@file@percent }
\@writefile{lot}{\contentsline {table}{\numberline {3.6}{\ignorespaces Values compared between datasets for X101 with PointRend}}{37}{table.caption.59}\protected@file@percent }
\@writefile{lof}{\contentsline {figure}{\numberline {3.7}{\ignorespaces Comparison of total loss between two classes.}}{37}{figure.caption.60}\protected@file@percent }
\@writefile{toc}{\contentsline {section}{\numberline {3.4}Final Training}{38}{section.3.4}\protected@file@percent }
\@writefile{toc}{\contentsline {subsection}{\numberline {3.4.1}X101, New Dataset}{38}{subsection.3.4.1}\protected@file@percent }
\@writefile{lof}{\contentsline {figure}{\numberline {3.8}{\ignorespaces X101 inference on the new dataset, with a score threshold of 0.5}}{39}{figure.caption.61}\protected@file@percent }
\@writefile{lof}{\contentsline {subfigure}{\numberline{(a)}{\ignorespaces {1}}}{39}{subfigure.8.1}\protected@file@percent }
\@writefile{lof}{\contentsline {subfigure}{\numberline{(b)}{\ignorespaces {2}}}{39}{subfigure.8.2}\protected@file@percent }
\@writefile{lof}{\contentsline {figure}{\numberline {3.9}{\ignorespaces X101 inference on the new dataset, with a score threshold of 0.7}}{40}{figure.caption.62}\protected@file@percent }
\@writefile{lof}{\contentsline {subfigure}{\numberline{(a)}{\ignorespaces {1}}}{40}{subfigure.9.1}\protected@file@percent }
\@writefile{lof}{\contentsline {subfigure}{\numberline{(b)}{\ignorespaces {2}}}{40}{subfigure.9.2}\protected@file@percent }
\@writefile{lof}{\contentsline {figure}{\numberline {3.10}{\ignorespaces X101 inference on the new dataset, with a score threshold of 0.5.}}{41}{figure.caption.63}\protected@file@percent }
\@writefile{lof}{\contentsline {subfigure}{\numberline{(a)}{\ignorespaces {1}}}{41}{subfigure.10.1}\protected@file@percent }
\@writefile{lof}{\contentsline {subfigure}{\numberline{(b)}{\ignorespaces {2}}}{41}{subfigure.10.2}\protected@file@percent }
\@writefile{lof}{\contentsline {figure}{\numberline {3.11}{\ignorespaces X101 inference on the new dataset, with a score threshold of 0.7.}}{42}{figure.caption.64}\protected@file@percent }
\@writefile{lof}{\contentsline {subfigure}{\numberline{(a)}{\ignorespaces {1}}}{42}{subfigure.11.1}\protected@file@percent }
\@writefile{lof}{\contentsline {subfigure}{\numberline{(b)}{\ignorespaces {2}}}{42}{subfigure.11.2}\protected@file@percent }
\@writefile{lot}{\contentsline {table}{\numberline {3.7}{\ignorespaces bbox AP based threshold scores}}{42}{table.caption.65}\protected@file@percent }
\@writefile{lot}{\contentsline {table}{\numberline {3.8}{\ignorespaces bbox AP results for new dataset}}{43}{table.caption.66}\protected@file@percent }
\@writefile{lot}{\contentsline {table}{\numberline {3.9}{\ignorespaces segm AP based threshold scores}}{43}{table.caption.67}\protected@file@percent }
\@writefile{lot}{\contentsline {table}{\numberline {3.10}{\ignorespaces segm AP results for new dataset}}{43}{table.caption.68}\protected@file@percent }
\@writefile{toc}{\contentsline {subsection}{\numberline {3.4.2}X101, Combined Dataset}{43}{subsection.3.4.2}\protected@file@percent }
\@writefile{lof}{\contentsline {figure}{\numberline {3.12}{\ignorespaces X101 inference on the new dataset, with a score threshold of 0.5}}{44}{figure.caption.69}\protected@file@percent }
\@writefile{lof}{\contentsline {subfigure}{\numberline{(a)}{\ignorespaces {1}}}{44}{subfigure.12.1}\protected@file@percent }
\@writefile{lof}{\contentsline {subfigure}{\numberline{(b)}{\ignorespaces {2}}}{44}{subfigure.12.2}\protected@file@percent }
\@writefile{lof}{\contentsline {figure}{\numberline {3.13}{\ignorespaces X101 inference on the new dataset, with a score threshold of 0.7}}{45}{figure.caption.70}\protected@file@percent }
\@writefile{lof}{\contentsline {subfigure}{\numberline{(a)}{\ignorespaces {1}}}{45}{subfigure.13.1}\protected@file@percent }
\@writefile{lof}{\contentsline {subfigure}{\numberline{(b)}{\ignorespaces {2}}}{45}{subfigure.13.2}\protected@file@percent }
\@writefile{lof}{\contentsline {figure}{\numberline {3.14}{\ignorespaces X101 inference on the new dataset, with a score threshold of 0.5.}}{46}{figure.caption.71}\protected@file@percent }
\@writefile{lof}{\contentsline {subfigure}{\numberline{(a)}{\ignorespaces {1}}}{46}{subfigure.14.1}\protected@file@percent }
\@writefile{lof}{\contentsline {subfigure}{\numberline{(b)}{\ignorespaces {2}}}{46}{subfigure.14.2}\protected@file@percent }
\@writefile{lof}{\contentsline {figure}{\numberline {3.15}{\ignorespaces X101 inference on the new dataset, with a score threshold of 0.7.}}{47}{figure.caption.72}\protected@file@percent }
\@writefile{lof}{\contentsline {subfigure}{\numberline{(a)}{\ignorespaces {1}}}{47}{subfigure.15.1}\protected@file@percent }
\@writefile{lof}{\contentsline {subfigure}{\numberline{(b)}{\ignorespaces {2}}}{47}{subfigure.15.2}\protected@file@percent }
\@writefile{lot}{\contentsline {table}{\numberline {3.11}{\ignorespaces bbox AP based threshold scores}}{47}{table.caption.73}\protected@file@percent }
\@writefile{lot}{\contentsline {table}{\numberline {3.12}{\ignorespaces bbox AP results for combined dataset}}{48}{table.caption.74}\protected@file@percent }
\@writefile{lot}{\contentsline {table}{\numberline {3.13}{\ignorespaces segm AP based threshold scores}}{48}{table.caption.75}\protected@file@percent }
\@writefile{lot}{\contentsline {table}{\numberline {3.14}{\ignorespaces segm AP results for combined dataset}}{48}{table.caption.76}\protected@file@percent }
\@writefile{toc}{\contentsline {subsection}{\numberline {3.4.3}R50, New Dataset}{48}{subsection.3.4.3}\protected@file@percent }
\@writefile{lof}{\contentsline {figure}{\numberline {3.16}{\ignorespaces R50 inference on the new dataset, with a score threshold of 0.5}}{49}{figure.caption.77}\protected@file@percent }
\@writefile{lof}{\contentsline {subfigure}{\numberline{(a)}{\ignorespaces {1}}}{49}{subfigure.16.1}\protected@file@percent }
\@writefile{lof}{\contentsline {subfigure}{\numberline{(b)}{\ignorespaces {2}}}{49}{subfigure.16.2}\protected@file@percent }
\@writefile{lof}{\contentsline {figure}{\numberline {3.17}{\ignorespaces R50 inference on the new dataset, with a score threshold of 0.7}}{50}{figure.caption.78}\protected@file@percent }
\@writefile{lof}{\contentsline {subfigure}{\numberline{(a)}{\ignorespaces {1}}}{50}{subfigure.17.1}\protected@file@percent }
\@writefile{lof}{\contentsline {subfigure}{\numberline{(b)}{\ignorespaces {2}}}{50}{subfigure.17.2}\protected@file@percent }
\@writefile{lof}{\contentsline {figure}{\numberline {3.18}{\ignorespaces R50 inference on the new dataset, with a score threshold of 0.5.}}{51}{figure.caption.79}\protected@file@percent }
\@writefile{lof}{\contentsline {subfigure}{\numberline{(a)}{\ignorespaces {1}}}{51}{subfigure.18.1}\protected@file@percent }
\@writefile{lof}{\contentsline {subfigure}{\numberline{(b)}{\ignorespaces {2}}}{51}{subfigure.18.2}\protected@file@percent }
\@writefile{lof}{\contentsline {figure}{\numberline {3.19}{\ignorespaces R50 inference on the new dataset, with a score threshold of 0.7.}}{52}{figure.caption.80}\protected@file@percent }
\@writefile{lof}{\contentsline {subfigure}{\numberline{(a)}{\ignorespaces {1}}}{52}{subfigure.19.1}\protected@file@percent }
\@writefile{lof}{\contentsline {subfigure}{\numberline{(b)}{\ignorespaces {2}}}{52}{subfigure.19.2}\protected@file@percent }
\@writefile{lot}{\contentsline {table}{\numberline {3.15}{\ignorespaces bbox AP based threshold scores}}{52}{table.caption.81}\protected@file@percent }
\@writefile{lot}{\contentsline {table}{\numberline {3.16}{\ignorespaces bbox AP results for combined dataset}}{53}{table.caption.82}\protected@file@percent }
\@writefile{lot}{\contentsline {table}{\numberline {3.17}{\ignorespaces segm AP based threshold scores}}{53}{table.caption.83}\protected@file@percent }
\@writefile{lot}{\contentsline {table}{\numberline {3.18}{\ignorespaces segm AP results for combined dataset}}{53}{table.caption.84}\protected@file@percent }
\@writefile{toc}{\contentsline {subsection}{\numberline {3.4.4}R50, Combined Dataset}{53}{subsection.3.4.4}\protected@file@percent }
\@writefile{lof}{\contentsline {figure}{\numberline {3.20}{\ignorespaces R50 inference on the new dataset, with a score threshold of 0.5}}{54}{figure.caption.85}\protected@file@percent }
\@writefile{lof}{\contentsline {subfigure}{\numberline{(a)}{\ignorespaces {1}}}{54}{subfigure.20.1}\protected@file@percent }
\@writefile{lof}{\contentsline {subfigure}{\numberline{(b)}{\ignorespaces {2}}}{54}{subfigure.20.2}\protected@file@percent }
\@writefile{lof}{\contentsline {figure}{\numberline {3.21}{\ignorespaces R50 inference on the new dataset, with a score threshold of 0.7}}{55}{figure.caption.86}\protected@file@percent }
\@writefile{lof}{\contentsline {subfigure}{\numberline{(a)}{\ignorespaces {1}}}{55}{subfigure.21.1}\protected@file@percent }
\@writefile{lof}{\contentsline {subfigure}{\numberline{(b)}{\ignorespaces {2}}}{55}{subfigure.21.2}\protected@file@percent }
\@writefile{lof}{\contentsline {figure}{\numberline {3.22}{\ignorespaces R50 inference on the new dataset, with a score threshold of 0.5.}}{56}{figure.caption.87}\protected@file@percent }
\@writefile{lof}{\contentsline {subfigure}{\numberline{(a)}{\ignorespaces {1}}}{56}{subfigure.22.1}\protected@file@percent }
\@writefile{lof}{\contentsline {subfigure}{\numberline{(b)}{\ignorespaces {2}}}{56}{subfigure.22.2}\protected@file@percent }
\@writefile{lof}{\contentsline {figure}{\numberline {3.23}{\ignorespaces R50 inference on the new dataset, with a score threshold of 0.7.}}{57}{figure.caption.88}\protected@file@percent }
\@writefile{lof}{\contentsline {subfigure}{\numberline{(a)}{\ignorespaces {1}}}{57}{subfigure.23.1}\protected@file@percent }
\@writefile{lof}{\contentsline {subfigure}{\numberline{(b)}{\ignorespaces {2}}}{57}{subfigure.23.2}\protected@file@percent }
\@writefile{lot}{\contentsline {table}{\numberline {3.19}{\ignorespaces bbox AP based threshold scores}}{57}{table.caption.89}\protected@file@percent }
\@writefile{lot}{\contentsline {table}{\numberline {3.20}{\ignorespaces bbox AP results for combined dataset}}{58}{table.caption.90}\protected@file@percent }
\@writefile{lot}{\contentsline {table}{\numberline {3.21}{\ignorespaces segm AP based threshold scores}}{58}{table.caption.91}\protected@file@percent }
\@writefile{lot}{\contentsline {table}{\numberline {3.22}{\ignorespaces segm AP results for combined dataset}}{58}{table.caption.92}\protected@file@percent }
\bibdata{source}
\bibcite{akiba2019optuna}{1}
\bibcite{pathologydetectron}{2}
\bibcite{bochkovskiy2020yolov4}{3}
\bibcite{cvtechniques}{4}
\bibcite{chen2017rethinking}{5}
\bibcite{chen2018encoderdecoder}{6}
\bibcite{fastrcnn}{7}
\bibcite{girshick2014rich}{8}
\bibcite{ICGDroneDataset}{9}
\bibcite{he2018mask}{10}
\bibcite{pyramidpooling}{11}
\bibcite{resnet}{12}
\bibcite{panoptic}{13}
\bibcite{pointrend}{14}
\bibcite{lin2017feature}{15}
\bibcite{retinanet}{16}
\bibcite{ssd}{17}
\bibcite{fcn}{18}
\bibcite{sceneunderstanding}{19}
\bibcite{pytorch}{20}
\bibcite{yolov1}{21}
\bibcite{fasterrcnn}{22}
\bibcite{ronneberger2015u}{23}
\bibcite{mobilenetv2}{24}
\bibcite{vgg16}{25}
\bibcite{Selective}{26}
\bibcite{resnext}{27}
\bibcite{upsnet}{28}
\bibstyle{plaindin}
\gdef \@abspage@last{70}
