\BOOKMARK [0][-]{chapter.1}{\376\377\000S\000t\000a\000t\000e\000\040\000o\000f\000\040\000t\000h\000e\000\040\000A\000r\000t}{}% 1
\BOOKMARK [1][-]{section.1.1}{\376\377\000C\000o\000m\000p\000u\000t\000e\000r\000\040\000V\000i\000s\000i\000o\000n\000\040\000t\000a\000s\000k\000s}{chapter.1}% 2
\BOOKMARK [2][-]{subsection.1.1.1}{\376\377\000O\000b\000j\000e\000c\000t\000\040\000D\000e\000t\000e\000c\000t\000i\000o\000n}{section.1.1}% 3
\BOOKMARK [2][-]{subsection.1.1.2}{\376\377\000I\000n\000s\000t\000a\000n\000c\000e\000\040\000S\000e\000g\000m\000e\000n\000t\000a\000t\000i\000o\000n}{section.1.1}% 4
\BOOKMARK [2][-]{subsection.1.1.3}{\376\377\000S\000e\000m\000a\000n\000t\000i\000c\000\040\000S\000e\000g\000m\000e\000n\000t\000a\000t\000i\000o\000n}{section.1.1}% 5
\BOOKMARK [2][-]{subsection.1.1.4}{\376\377\000P\000a\000n\000o\000p\000t\000i\000c\000\040\000S\000e\000g\000m\000e\000n\000t\000a\000t\000i\000o\000n}{section.1.1}% 6
\BOOKMARK [1][-]{section.1.2}{\376\377\000D\000e\000t\000e\000c\000t\000o\000r\000s}{chapter.1}% 7
\BOOKMARK [2][-]{subsection.1.2.1}{\376\377\000T\000w\000o\000-\000s\000t\000a\000g\000e\000\040\000D\000e\000t\000e\000c\000t\000o\000r\000s}{section.1.2}% 8
\BOOKMARK [2][-]{subsection.1.2.2}{\376\377\000O\000n\000e\000-\000s\000t\000a\000g\000e\000\040\000D\000e\000t\000e\000c\000t\000o\000r\000s}{section.1.2}% 9
\BOOKMARK [1][-]{section.1.3}{\376\377\000L\000o\000s\000s\000\040\000M\000e\000t\000r\000i\000c\000s}{chapter.1}% 10
\BOOKMARK [0][-]{chapter.2}{\376\377\000D\000a\000t\000a\000\040\000a\000n\000d\000\040\000M\000e\000t\000h\000o\000d\000o\000l\000o\000g\000y}{}% 11
\BOOKMARK [1][-]{section.2.1}{\376\377\000D\000a\000t\000a\000s\000e\000t}{chapter.2}% 12
\BOOKMARK [2][-]{subsection.2.1.1}{\376\377\000O\000r\000i\000g\000i\000n\000a\000l\000\040\000D\000a\000t\000a\000s\000e\000t}{section.2.1}% 13
\BOOKMARK [2][-]{subsection.2.1.2}{\376\377\000D\000a\000t\000a\000\040\000A\000u\000g\000m\000e\000n\000t\000a\000t\000i\000o\000n}{section.2.1}% 14
\BOOKMARK [2][-]{subsection.2.1.3}{\376\377\000E\000d\000i\000t\000e\000d\000\040\000C\000l\000a\000s\000s\000\040\000D\000a\000t\000a\000s\000e\000t}{section.2.1}% 15
\BOOKMARK [2][-]{subsection.2.1.4}{\376\377\000S\000e\000l\000f\000\040\000A\000n\000n\000o\000t\000a\000t\000e\000d\000\040\000D\000a\000t\000a\000s\000e\000t}{section.2.1}% 16
\BOOKMARK [2][-]{subsection.2.1.5}{\376\377\000C\000o\000m\000b\000i\000n\000e\000d\000\040\000D\000a\000t\000a\000s\000e\000t}{section.2.1}% 17
\BOOKMARK [1][-]{section.2.2}{\376\377\000E\000a\000r\000l\000y\000\040\000T\000r\000i\000a\000l\000s}{chapter.2}% 18
\BOOKMARK [2][-]{subsection.2.2.1}{\376\377\000D\000e\000e\000p\000l\000a\000b\000\040\000w\000i\000t\000h\000\040\000P\000y\000t\000o\000r\000c\000h}{section.2.2}% 19
\BOOKMARK [2][-]{subsection.2.2.2}{\376\377\000D\000e\000t\000e\000c\000t\000r\000o\000n\0002}{section.2.2}% 20
\BOOKMARK [2][-]{subsection.2.2.3}{\376\377\000D\000e\000t\000e\000c\000t\000r\000o\000n\0002\000\040\000L\000o\000s\000s\000\040\000M\000e\000t\000r\000i\000c\000s}{section.2.2}% 21
\BOOKMARK [1][-]{section.2.3}{\376\377\000H\000y\000p\000e\000r\000p\000a\000r\000a\000m\000e\000t\000e\000r\000\040\000O\000p\000t\000i\000m\000i\000z\000a\000t\000i\000o\000n}{chapter.2}% 22
\BOOKMARK [0][-]{chapter.3}{\376\377\000R\000e\000s\000u\000l\000t\000s\000\040\000a\000n\000d\000\040\000D\000i\000s\000c\000u\000s\000s\000i\000o\000n}{}% 23
\BOOKMARK [1][-]{section.3.1}{\376\377\000R\0005\0000\000,\000\040\000F\000P\000N\000,\000\040\0003\000x}{chapter.3}% 24
\BOOKMARK [1][-]{section.3.2}{\376\377\000X\0001\0000\0001\000,\000\040\000F\000P\000N\000,\000\040\0003\000x}{chapter.3}% 25
\BOOKMARK [1][-]{section.3.3}{\376\377\000X\0001\0000\0001\000\040\000w\000i\000t\000h\000\040\000P\000o\000i\000n\000t\000R\000e\000n\000d}{chapter.3}% 26
\BOOKMARK [1][-]{section.3.4}{\376\377\000F\000i\000n\000a\000l\000\040\000T\000r\000a\000i\000n\000i\000n\000g}{chapter.3}% 27
\BOOKMARK [2][-]{subsection.3.4.1}{\376\377\000X\0001\0000\0001\000,\000\040\000N\000e\000w\000\040\000D\000a\000t\000a\000s\000e\000t}{section.3.4}% 28
\BOOKMARK [2][-]{subsection.3.4.2}{\376\377\000X\0001\0000\0001\000,\000\040\000C\000o\000m\000b\000i\000n\000e\000d\000\040\000D\000a\000t\000a\000s\000e\000t}{section.3.4}% 29
\BOOKMARK [2][-]{subsection.3.4.3}{\376\377\000R\0005\0000\000,\000\040\000N\000e\000w\000\040\000D\000a\000t\000a\000s\000e\000t}{section.3.4}% 30
\BOOKMARK [2][-]{subsection.3.4.4}{\376\377\000R\0005\0000\000,\000\040\000C\000o\000m\000b\000i\000n\000e\000d\000\040\000D\000a\000t\000a\000s\000e\000t}{section.3.4}% 31
