\babel@toc {ngerman}{}\relax 
\babel@toc {ngerman}{}\relax 
\addvspace {10\p@ }
\addvspace {10\p@ }
\addvspace {10\p@ }
\addvspace {10\p@ }
\addvspace {10\p@ }
\addvspace {10\p@ }
\providecommand \tocbasic@end@toc@file {}\tocbasic@end@toc@file 
