\babel@toc {ngerman}{}\relax 
\babel@toc {ngerman}{}\relax 
\contentsline {chapter}{\nonumberline Abbildungsverzeichnis}{iv}{Doc-Start}%
\contentsline {chapter}{\nonumberline Tabellenverzeichnis}{v}{Doc-Start}%
\contentsline {chapter}{\numberline {1}Introduction}{1}{chapter.1}%
\contentsline {section}{\numberline {1.1}Motivation}{1}{section.1.1}%
\contentsline {section}{\numberline {1.2}Goal of the Work}{1}{section.1.2}%
\contentsline {section}{\numberline {1.3}Outline of the Work}{2}{section.1.3}%
\contentsline {chapter}{\numberline {2}Basics of Image Segmentation}{3}{chapter.2}%
\contentsline {section}{\numberline {2.1}Implementations}{3}{section.2.1}%
\contentsline {chapter}{\numberline {3}Kapitel 3}{5}{chapter.3}%
\contentsline {section}{\numberline {3.1}Drei punkt eins}{5}{section.3.1}%
\contentsline {chapter}{\numberline {4}Kapitel 4}{12}{chapter.4}%
\contentsline {section}{\numberline {4.1}Chicken}{12}{section.4.1}%
\contentsline {chapter}{\numberline {5}Kapitel 5}{13}{chapter.5}%
\contentsline {chapter}{\numberline {A}Anhang}{14}{appendix.A}%
\contentsline {section}{\numberline {A.1}Example}{14}{section.A.1}%
\providecommand \tocbasic@end@toc@file {}\tocbasic@end@toc@file 
