\relax 
\providecommand\hyper@newdestlabel[2]{}
\@writefile{toc}{\contentsline {chapter}{\numberline {1}Introduction}{1}{chapter.1}\protected@file@percent }
\@writefile{lof}{\addvspace {10\p@ }}
\@writefile{lot}{\addvspace {10\p@ }}
\@writefile{lol}{\addvspace {10\p@ }}
\@writefile{toc}{\contentsline {section}{\numberline {1.1}Motivation}{1}{section.1.1}\protected@file@percent }
\@writefile{toc}{\contentsline {section}{\numberline {1.2}Goal of the Work}{1}{section.1.2}\protected@file@percent }
\@writefile{toc}{\contentsline {section}{\numberline {1.3}Outline of the Work}{2}{section.1.3}\protected@file@percent }
\@setckpt{kapitel_1}{
\setcounter{page}{3}
\setcounter{equation}{0}
\setcounter{enumi}{0}
\setcounter{enumii}{0}
\setcounter{enumiii}{0}
\setcounter{enumiv}{0}
\setcounter{footnote}{0}
\setcounter{mpfootnote}{0}
\setcounter{part}{0}
\setcounter{chapter}{1}
\setcounter{section}{3}
\setcounter{subsection}{0}
\setcounter{subsubsection}{0}
\setcounter{paragraph}{0}
\setcounter{subparagraph}{0}
\setcounter{figure}{0}
\setcounter{table}{0}
\setcounter{section@level}{1}
\setcounter{Item}{0}
\setcounter{Hfootnote}{0}
\setcounter{bookmark@seq@number}{0}
\setcounter{caption@flags}{0}
\setcounter{continuedfloat}{0}
\setcounter{subfigure}{0}
\setcounter{subtable}{0}
\setcounter{lstnumber}{1}
\setcounter{float@type}{8}
\setcounter{FancyVerbLine}{0}
\setcounter{vrcnt}{0}
\setcounter{lstlisting}{0}
}
