\relax 
\providecommand\hyper@newdestlabel[2]{}
\citation{ronneberger2015u}
\@writefile{toc}{\contentsline {chapter}{\numberline {2}Basics of Image Segmentation}{3}{chapter.2}\protected@file@percent }
\@writefile{lof}{\addvspace {10\p@ }}
\@writefile{lot}{\addvspace {10\p@ }}
\@writefile{lol}{\addvspace {10\p@ }}
\newlabel{chap:basics}{{2}{3}{Basics of Image Segmentation}{chapter.2}{}}
\@writefile{toc}{\contentsline {section}{\numberline {2.1}Implementations}{3}{section.2.1}\protected@file@percent }
\newlabel{sec:implementations}{{2.1}{3}{Implementations}{section.2.1}{}}
\@setckpt{kapitel_2}{
\setcounter{page}{5}
\setcounter{equation}{0}
\setcounter{enumi}{0}
\setcounter{enumii}{0}
\setcounter{enumiii}{0}
\setcounter{enumiv}{0}
\setcounter{footnote}{0}
\setcounter{mpfootnote}{0}
\setcounter{part}{0}
\setcounter{chapter}{2}
\setcounter{section}{1}
\setcounter{subsection}{0}
\setcounter{subsubsection}{0}
\setcounter{paragraph}{0}
\setcounter{subparagraph}{0}
\setcounter{figure}{0}
\setcounter{table}{0}
\setcounter{section@level}{1}
\setcounter{Item}{0}
\setcounter{Hfootnote}{0}
\setcounter{bookmark@seq@number}{0}
\setcounter{caption@flags}{0}
\setcounter{continuedfloat}{0}
\setcounter{subfigure}{0}
\setcounter{subtable}{0}
\setcounter{lstnumber}{1}
\setcounter{float@type}{8}
\setcounter{FancyVerbLine}{0}
\setcounter{vrcnt}{0}
\setcounter{lstlisting}{0}
}
